%YAML 1.1
%TAG !u! tag:unity3d.com,2011:
--- !u!114 &11400000
MonoBehaviour:
  m_ObjectHideFlags: 0
  m_CorrespondingSourceObject: {fileID: 0}
  m_PrefabInstance: {fileID: 0}
  m_PrefabAsset: {fileID: 0}
  m_GameObject: {fileID: 0}
  m_Enabled: 1
  m_EditorHideFlags: 0
  m_Script: {fileID: 763834002, guid: 5b00bf8b25851d440940a40ec23344f4, type: 3}
  m_Name: BoltPrefabDatabase
  m_EditorClassIdentifier: 
  DatabaseMode: 0
  Prefabs:
  - {fileID: 0}
  - {fileID: 1389761361301534, guid: e6b32b05b509e764793b1b3ea9e3cafc, type: 3}
  - {fileID: 1493488624383472, guid: c95c6c97a961df34f99541c03c66d692, type: 3}
  - {fileID: 1247885272365564, guid: 7b03e663df33e0d46b39ee69e002874a, type: 3}
  - {fileID: 1476541250948344, guid: e39a8a204e8d21d43810e564f35a1e2c, type: 3}
