%YAML 1.1
%TAG !u! tag:unity3d.com,2011:
--- !u!1045 &1
EditorBuildSettings:
  m_ObjectHideFlags: 0
  serializedVersion: 2
  m_Scenes:
  - enabled: 1
    path: Assets/Scenes/login.unity
    guid: b70314727ead16e46a99ab2a2115b0e2
  - enabled: 1
    path: Assets/Scenes/meetingroom.unity
    guid: 04366cf96a2fdae4aa553aa9a8fc1fd1
  - enabled: 1
    path: Assets/Scenes/ancienteast.unity
    guid: aa2f99e6417107b40ac99ca4048ba2cf
  - enabled: 1
    path: Assets/Scenes/woodland.unity
    guid: 88c83813aed79c14b893d5ca3ee0414b
  - enabled: 1
    path: Assets/Scenes/artgallery.unity
    guid: a180d1df7a407a24085ae1a15f44ae0e
  - enabled: 1
    path: Assets/Scenes/LoadingRoom.unity
    guid: 28eaadef57b841048802c7bf66d6db2c
  - enabled: 0
    path: Assets/Scenes/testroom.unity
    guid: 2c7add63f3be3b34ba03a970ceaffd25
  m_configObjects: {}
